{
  "type": "service_account",
  "project_id": "instastuff-194519",
  "private_key_id": "d7c6360eb10547e9261a48568f1cde9c75ee921a",
  "private_key": "-----BEGIN PRIVATE KEY-----\nMIIEvgIBADANBgkqhkiG9w0BAQEFAASCBKgwggSkAgEAAoIBAQC5LMYF4d1KBOhC\nkmkcjri3oAn5qIMbhU4ndHMmqQS5V460yD2RdadwBnHvktjZ2CVVFx3bnL66Wf/k\nhTjo0tBogZNe3ccodOhzLLHsOP9MTwGBvyhZyx2YUzKzVAIRqjIlQbUJrzEzhPCz\ntthexoVLhyVqNwiVrgo6qk5LL1cP28A3Ri8NY0Tw7N7wPYM2o2nGQUhJxI/l2l5r\n5Ezx/tjWCrPB5p02avaUqydA96O6Pyo0aH2QBoR+OukWk56d+KWTPnNh+vBALDsC\nIFbGxZCTCloLqw8JHArVqVtZ/9e4nlZJHXnT1fmfV9pR7Xvz49G4hq3vA3aXmROf\n/ulLkmuzAgMBAAECggEACqRFkkORxykZorwteTwq5mnQMosaICp2Vgy6ePxmocyK\nQXgIF13TeQjA/HuMDDAaErx8DuMzqZvDE0I97B3NZ1KAm+35ffXPmmrbo/X+MGFf\nKbJiiPW3Mv1SoRaqjCxW3gHbYkqX2vYAkgg0gag9mc95X+DFlNO5kV4fML5WoQau\nzndH/4s8vH5KHEj+Cq2sBrCisya0jkdlnJV+1DAicawqNLFeQGtk9VgLYLMt1fMo\nAcjMDZaISu3AEHeHx2nSsyWtPjSgWEkPFE1rWSL/nI2DSVLkyekW6tDufqn/qLcV\nuCkQZdR/rYJCbPzqh5AHYhVx5GM4pblT13EhWnQHwQKBgQD6F6U/koyPPPLZsZ+s\naE0X/VlHzUOSGeVLExWZzCXx9jXuI2SJUgZa8ea6H8hu74YPyyKGD3v+iP5evuj9\nD/fweugf3lN0Sd1BGu3yMscuwr3O0S64r3jzCPOuunqgzaHJOhUNHDimD7wlnbHd\nOK+CC94q8aDgAR99exse4QYN8wKBgQC9jI9mvYzQFKFFLFo9aRmUgEnVZLvmzZlA\n/2eGgWZzIemC7b5yXAFwf6jzatdIdDkyp18dFZwaGNm5bMkZdbI04E2nXWG40OPc\n3JRwG+ffn/oCsvBXynUKY3ds7zQW3JuNwXjaFxLVoxDb1POORuGYDKG3WIbcsnCk\n0jfkTP7bQQKBgQDv8Beecl9gXT0xFnT21+p/BZXOiWQ2m5mc+WZT88TD60+6dUJT\nbNqkDkkqcKu/oxWfuWgZ7mkrvwsso0Ss5dEeawyg5pBylRstB0UahRUMC9JGxfJp\nRhBoO0JvdIGKHT8G7C6eMWE4EQiVnkGy2FuqDPDNipypzOoFXUKb0ZAZeQKBgEy6\ndl4Pgs3EXBflQU40mi870yd3lHx0Y4IlISIYhYE7jAv88yfVyJtigeCvMiBZM8Im\ncGEUm1ERGClwOON+ejnfRm/mZCVtIaAJBmlvUmh6mLi4+IOBJ+mho/lLxxkuCiXS\n2Hnn9y7VyIBEbqb8WFu1WU0fn8/8x45grlFTPaNBAoGBALOlCzOGFYw/UpnI3LDc\nc2XW7Pw+R2CFf94GbYjH7R5SWWoVEGqqD638f5ob/bk8FMcnQGb0AUWrpEOM4wKH\nlksXeheSE2+FOm9kfRrlk9y7eCIwHzsgM50CVLCe4rUzxW8fRu36OT6FuKm2PM83\niBmycSBSnuis3L4ZpzJxct/S\n-----END PRIVATE KEY-----\n",
  "client_email": "langerlulatsch@instastuff-194519.iam.gserviceaccount.com",
  "client_id": "104942908468421744123",
  "auth_uri": "https://accounts.google.com/o/oauth2/auth",
  "token_uri": "https://accounts.google.com/o/oauth2/token",
  "auth_provider_x509_cert_url": "https://www.googleapis.com/oauth2/v1/certs",
  "client_x509_cert_url": "https://www.googleapis.com/robot/v1/metadata/x509/langerlulatsch%40instastuff-194519.iam.gserviceaccount.com"
}
